{
    "name": "InputTestScene_Actions",
    "maps": [
        {
            "name": "LogitechExtreme3DPro",
            "id": "1ca209b8-655b-4626-ae89-76ac2f30810a",
            "actions": [
                {
                    "name": "StickX",
                    "type": "Value",
                    "id": "529fc293-542e-4b3e-ad1f-93c676169650",
                    "expectedControlType": "Axis",
                    "processors": "",
                    "interactions": "",
                    "initialStateCheck": true
                },
                {
                    "name": "StickZ",
                    "type": "Value",
                    "id": "6e5cb46d-4cb5-428d-8465-96f82b58250b",
                    "expectedControlType": "Axis",
                    "processors": "Invert",
                    "interactions": "",
                    "initialStateCheck": true
                },
                {
                    "name": "StickY",
                    "type": "Value",
                    "id": "d69914ee-e98b-4461-a488-e3454585a450",
                    "expectedControlType": "Axis",
                    "processors": "",
                    "interactions": "",
                    "initialStateCheck": true
                },
                {
                    "name": "ThrottleAxis",
                    "type": "Value",
                    "id": "0357ca29-5d96-4d0e-940a-0454c1889ae9",
                    "expectedControlType": "Axis",
                    "processors": "",
                    "interactions": "",
                    "initialStateCheck": true
                },
                {
                    "name": "HatKnobX",
                    "type": "Value",
                    "id": "ec042b2b-9a9a-4683-b313-d7765a35212a",
                    "expectedControlType": "Axis",
                    "processors": "",
                    "interactions": "",
                    "initialStateCheck": true
                },
                {
                    "name": "HatKnobZ",
                    "type": "Value",
                    "id": "b39e77b8-20db-4a2c-aa2f-80500ad45b4d",
                    "expectedControlType": "Axis",
                    "processors": "",
                    "interactions": "",
                    "initialStateCheck": true
                },
                {
                    "name": "HatKnobLeft",
                    "type": "Button",
                    "id": "ce956a01-8b50-4e3d-81fa-afe5edd51a41",
                    "expectedControlType": "Button",
                    "processors": "",
                    "interactions": "",
                    "initialStateCheck": false
                },
                {
                    "name": "HatKnobRight",
                    "type": "Button",
                    "id": "c2ca12d5-fc16-413e-8830-6d6439589a09",
                    "expectedControlType": "Button",
                    "processors": "",
                    "interactions": "",
                    "initialStateCheck": false
                },
                {
                    "name": "HatKnobForward",
                    "type": "Button",
                    "id": "fab552d4-764b-465d-828c-590cc2b7f258",
                    "expectedControlType": "Button",
                    "processors": "",
                    "interactions": "",
                    "initialStateCheck": false
                },
                {
                    "name": "HatKnobBack",
                    "type": "Button",
                    "id": "bca256d6-9f81-441c-bc54-b052f06511e2",
                    "expectedControlType": "Button",
                    "processors": "",
                    "interactions": "",
                    "initialStateCheck": false
                },
                {
                    "name": "StickButton1",
                    "type": "Button",
                    "id": "bd3e1a5e-eba0-40bc-97b8-3a8bf26497de",
                    "expectedControlType": "Button",
                    "processors": "",
                    "interactions": "",
                    "initialStateCheck": false
                },
                {
                    "name": "StickButton2",
                    "type": "Button",
                    "id": "f492352f-8357-477b-9d08-9181129060ce",
                    "expectedControlType": "Button",
                    "processors": "",
                    "interactions": "",
                    "initialStateCheck": false
                },
                {
                    "name": "StickButton3",
                    "type": "Button",
                    "id": "22fb1540-29e2-4500-bfaa-98f71fb041f5",
                    "expectedControlType": "Button",
                    "processors": "",
                    "interactions": "",
                    "initialStateCheck": false
                },
                {
                    "name": "StickButton4",
                    "type": "Button",
                    "id": "1abebb04-3c7c-4edb-96ba-85c428aef3e2",
                    "expectedControlType": "Button",
                    "processors": "",
                    "interactions": "",
                    "initialStateCheck": false
                },
                {
                    "name": "StickButton5",
                    "type": "Button",
                    "id": "b086c457-ba99-402e-9b71-cd6625ad18fb",
                    "expectedControlType": "Button",
                    "processors": "",
                    "interactions": "",
                    "initialStateCheck": false
                },
                {
                    "name": "StickButton6",
                    "type": "Button",
                    "id": "77f6b0f9-5c1c-40ff-aea7-a9e3e090b25f",
                    "expectedControlType": "Button",
                    "processors": "",
                    "interactions": "",
                    "initialStateCheck": false
                },
                {
                    "name": "StickButton7",
                    "type": "Button",
                    "id": "72149ae6-87dd-4969-9ac8-abfd3db9c4fc",
                    "expectedControlType": "Button",
                    "processors": "",
                    "interactions": "",
                    "initialStateCheck": false
                },
                {
                    "name": "StickButton8",
                    "type": "Button",
                    "id": "bd4a7ff7-ab06-4549-ad17-1a0d6f71afcc",
                    "expectedControlType": "Button",
                    "processors": "",
                    "interactions": "",
                    "initialStateCheck": false
                },
                {
                    "name": "StickButton9",
                    "type": "Button",
                    "id": "933ae7a8-d1c0-42cc-b471-c1d216930061",
                    "expectedControlType": "Button",
                    "processors": "",
                    "interactions": "",
                    "initialStateCheck": false
                },
                {
                    "name": "StickButton10",
                    "type": "Button",
                    "id": "80e12222-fde8-4af2-bd1b-0f6be0577438",
                    "expectedControlType": "Button",
                    "processors": "",
                    "interactions": "",
                    "initialStateCheck": false
                },
                {
                    "name": "StickButton11",
                    "type": "Button",
                    "id": "d829a79e-2223-4573-8624-6108869589f7",
                    "expectedControlType": "Button",
                    "processors": "",
                    "interactions": "",
                    "initialStateCheck": false
                },
                {
                    "name": "StickButton12",
                    "type": "Button",
                    "id": "99eacfec-37fc-480a-8cdd-487011d700c3",
                    "expectedControlType": "Button",
                    "processors": "",
                    "interactions": "",
                    "initialStateCheck": false
                }
            ],
            "bindings": [
                {
                    "name": "",
                    "id": "c7fbec94-b689-495f-80ff-10a708288233",
                    "path": "<HID::Logitech Logitech Extreme 3D>/stick/y",
                    "interactions": "",
                    "processors": "",
                    "groups": "",
                    "action": "StickX",
                    "isComposite": false,
                    "isPartOfComposite": false
                },
                {
                    "name": "",
                    "id": "ef90086c-9de1-4fd2-b1f0-095b14c87e94",
                    "path": "<Gamepad>/leftStick/y",
                    "interactions": "",
                    "processors": "",
                    "groups": "",
                    "action": "StickX",
                    "isComposite": false,
                    "isPartOfComposite": false
                },
                {
                    "name": "",
                    "id": "2d7e58da-13bc-4e5a-bf8e-4427dbf7d0c3",
                    "path": "<HID::Logitech Logitech Extreme 3D>/stick/x",
                    "interactions": "",
                    "processors": "",
                    "groups": "",
                    "action": "StickZ",
                    "isComposite": false,
                    "isPartOfComposite": false
                },
                {
                    "name": "",
                    "id": "79b4f6e7-8439-4cb0-9ebb-21d4d54bcb07",
                    "path": "<Gamepad>/leftStick/x",
                    "interactions": "",
                    "processors": "",
                    "groups": "",
                    "action": "StickZ",
                    "isComposite": false,
                    "isPartOfComposite": false
                },
                {
                    "name": "",
                    "id": "f6bc0aa4-9cbe-46c4-9d54-b71f87cb1b02",
                    "path": "<HID::Logitech Logitech Extreme 3D>/rz",
                    "interactions": "",
                    "processors": "",
                    "groups": "",
                    "action": "StickY",
                    "isComposite": false,
                    "isPartOfComposite": false
                },
                {
                    "name": "",
                    "id": "b68ca36f-0950-4e8f-837b-8949bd2d545e",
                    "path": "<Gamepad>/rightStick/x",
                    "interactions": "",
                    "processors": "",
                    "groups": "",
                    "action": "StickY",
                    "isComposite": false,
                    "isPartOfComposite": false
                },
                {
                    "name": "",
                    "id": "f81ce2b6-25dd-4c08-8160-763613ce631d",
                    "path": "<HID::Logitech Logitech Extreme 3D>/slider",
                    "interactions": "",
                    "processors": "Invert,Offset(offset=1),Scale(factor=0.5)",
                    "groups": "",
                    "action": "ThrottleAxis",
                    "isComposite": false,
                    "isPartOfComposite": false
                },
                {
                    "name": "",
                    "id": "7f699640-1a30-4b27-bc58-263de36c5e5f",
                    "path": "<Gamepad>/rightStick/y",
                    "interactions": "",
                    "processors": "",
                    "groups": "",
                    "action": "ThrottleAxis",
                    "isComposite": false,
                    "isPartOfComposite": false
                },
                {
                    "name": "",
                    "id": "1a7d9033-1ed1-400a-a993-76a91f38a2a5",
                    "path": "<HID::Logitech Logitech Extreme 3D>/hat/x",
                    "interactions": "",
                    "processors": "",
                    "groups": "",
                    "action": "HatKnobX",
                    "isComposite": false,
                    "isPartOfComposite": false
                },
                {
                    "name": "",
                    "id": "7fa25247-89aa-4a02-b7d8-f339ca7c6348",
                    "path": "<Gamepad>/dpad/x",
                    "interactions": "",
                    "processors": "",
                    "groups": "",
                    "action": "HatKnobX",
                    "isComposite": false,
                    "isPartOfComposite": false
                },
                {
                    "name": "",
                    "id": "edd11ffc-4063-4169-abb3-accb956d1368",
                    "path": "<HID::Logitech Logitech Extreme 3D>/hat/y",
                    "interactions": "",
                    "processors": "",
                    "groups": "",
                    "action": "HatKnobZ",
                    "isComposite": false,
                    "isPartOfComposite": false
                },
                {
                    "name": "",
                    "id": "05a2a99c-b6f5-42ad-acff-3417ab49aa20",
                    "path": "<Gamepad>/dpad/y",
                    "interactions": "",
                    "processors": "",
                    "groups": "",
                    "action": "HatKnobZ",
                    "isComposite": false,
                    "isPartOfComposite": false
                },
                {
                    "name": "",
                    "id": "574af6a4-5808-49ce-8ceb-8c02b459091d",
                    "path": "<HID::Logitech Logitech Extreme 3D>/hat/left",
                    "interactions": "",
                    "processors": "",
                    "groups": "",
                    "action": "HatKnobLeft",
                    "isComposite": false,
                    "isPartOfComposite": false
                },
                {
                    "name": "",
                    "id": "a4566dbc-2280-4dc3-af0b-290fd630f215",
                    "path": "<Gamepad>/dpad/left",
                    "interactions": "",
                    "processors": "",
                    "groups": "",
                    "action": "HatKnobLeft",
                    "isComposite": false,
                    "isPartOfComposite": false
                },
                {
                    "name": "",
                    "id": "df48edcb-e387-4c8b-930d-e7f5e69f2e05",
                    "path": "<HID::Logitech Logitech Extreme 3D>/hat/right",
                    "interactions": "",
                    "processors": "",
                    "groups": "",
                    "action": "HatKnobRight",
                    "isComposite": false,
                    "isPartOfComposite": false
                },
                {
                    "name": "",
                    "id": "dc603f95-6af2-4559-afa5-8f1ed7860e25",
                    "path": "<Gamepad>/dpad/right",
                    "interactions": "",
                    "processors": "",
                    "groups": "",
                    "action": "HatKnobRight",
                    "isComposite": false,
                    "isPartOfComposite": false
                },
                {
                    "name": "",
                    "id": "3a242d85-5a6c-41af-aa99-f16abee7face",
                    "path": "<HID::Logitech Logitech Extreme 3D>/hat/up",
                    "interactions": "",
                    "processors": "",
                    "groups": "",
                    "action": "HatKnobForward",
                    "isComposite": false,
                    "isPartOfComposite": false
                },
                {
                    "name": "",
                    "id": "841a9023-1bb7-42a0-a9dc-162107c02616",
                    "path": "<Gamepad>/dpad/up",
                    "interactions": "",
                    "processors": "",
                    "groups": "",
                    "action": "HatKnobForward",
                    "isComposite": false,
                    "isPartOfComposite": false
                },
                {
                    "name": "",
                    "id": "2199bda4-de22-479d-9afd-e906388dc283",
                    "path": "<HID::Logitech Logitech Extreme 3D>/hat/down",
                    "interactions": "",
                    "processors": "",
                    "groups": "",
                    "action": "HatKnobBack",
                    "isComposite": false,
                    "isPartOfComposite": false
                },
                {
                    "name": "",
                    "id": "9ca1f479-5a82-4341-9d39-e070d83cc102",
                    "path": "<Gamepad>/dpad/down",
                    "interactions": "",
                    "processors": "",
                    "groups": "",
                    "action": "HatKnobBack",
                    "isComposite": false,
                    "isPartOfComposite": false
                },
                {
                    "name": "",
                    "id": "17b72a61-9593-43ab-b87a-a76f7fae7459",
                    "path": "<HID::Logitech Logitech Extreme 3D>/trigger",
                    "interactions": "",
                    "processors": "",
                    "groups": "",
                    "action": "StickButton1",
                    "isComposite": false,
                    "isPartOfComposite": false
                },
                {
                    "name": "",
                    "id": "f413649e-e303-4e6d-94ac-d631d243dc96",
                    "path": "<Gamepad>/rightTrigger",
                    "interactions": "",
                    "processors": "",
                    "groups": "",
                    "action": "StickButton1",
                    "isComposite": false,
                    "isPartOfComposite": false
                },
                {
                    "name": "",
                    "id": "6e07f258-d317-4a71-bb54-d5dd93b0d03e",
                    "path": "<HID::Logitech Logitech Extreme 3D>/button2",
                    "interactions": "",
                    "processors": "",
                    "groups": "",
                    "action": "StickButton2",
                    "isComposite": false,
                    "isPartOfComposite": false
                },
                {
                    "name": "",
                    "id": "d7829814-5087-4fbf-9195-e39b8222f91e",
                    "path": "<Gamepad>/rightShoulder",
                    "interactions": "",
                    "processors": "",
                    "groups": "",
                    "action": "StickButton2",
                    "isComposite": false,
                    "isPartOfComposite": false
                },
                {
                    "name": "",
                    "id": "74b1b9d0-30e7-418b-b54c-30a19e29edb0",
                    "path": "<HID::Logitech Logitech Extreme 3D>/button3",
                    "interactions": "",
                    "processors": "",
                    "groups": "",
                    "action": "StickButton3",
                    "isComposite": false,
                    "isPartOfComposite": false
                },
                {
                    "name": "",
                    "id": "cc59ba26-b3cc-48a0-8d1b-ffff9b3e07b2",
                    "path": "<Gamepad>/buttonSouth",
                    "interactions": "",
                    "processors": "",
                    "groups": "",
                    "action": "StickButton3",
                    "isComposite": false,
                    "isPartOfComposite": false
                },
                {
                    "name": "",
                    "id": "eaca68b6-ecee-4169-a87d-021e80d4b685",
                    "path": "<HID::Logitech Logitech Extreme 3D>/button4",
                    "interactions": "",
                    "processors": "",
                    "groups": "",
                    "action": "StickButton4",
                    "isComposite": false,
                    "isPartOfComposite": false
                },
                {
                    "name": "",
                    "id": "1f7d8b3c-979a-4057-b530-b62e44f32b29",
                    "path": "<Gamepad>/buttonEast",
                    "interactions": "",
                    "processors": "",
                    "groups": "",
                    "action": "StickButton4",
                    "isComposite": false,
                    "isPartOfComposite": false
                },
                {
                    "name": "",
                    "id": "b1778a14-fdd2-49c3-911e-f7ae6212eb28",
                    "path": "<HID::Logitech Logitech Extreme 3D>/button5",
                    "interactions": "",
                    "processors": "",
                    "groups": "",
                    "action": "StickButton5",
                    "isComposite": false,
                    "isPartOfComposite": false
                },
                {
                    "name": "",
                    "id": "3c9cf452-b5a0-40b3-9bc3-865d2aa5db4b",
                    "path": "<Gamepad>/buttonWest",
                    "interactions": "",
                    "processors": "",
                    "groups": "",
                    "action": "StickButton5",
                    "isComposite": false,
                    "isPartOfComposite": false
                },
                {
                    "name": "",
                    "id": "92563a45-c3cf-41d7-9440-4dbb6724e039",
                    "path": "<HID::Logitech Logitech Extreme 3D>/button6",
                    "interactions": "",
                    "processors": "",
                    "groups": "",
                    "action": "StickButton6",
                    "isComposite": false,
                    "isPartOfComposite": false
                },
                {
                    "name": "",
                    "id": "0933d1c6-0a7b-44f1-900d-a05ad2b9f6e6",
                    "path": "<Gamepad>/buttonNorth",
                    "interactions": "",
                    "processors": "",
                    "groups": "",
                    "action": "StickButton6",
                    "isComposite": false,
                    "isPartOfComposite": false
                },
                {
                    "name": "",
                    "id": "82be9dd2-a231-4b0f-ab93-75f1d6385f11",
                    "path": "<HID::Logitech Logitech Extreme 3D>/button7",
                    "interactions": "",
                    "processors": "",
                    "groups": "",
                    "action": "StickButton7",
                    "isComposite": false,
                    "isPartOfComposite": false
                },
                {
                    "name": "",
                    "id": "b9e04d51-5e9b-480a-8f59-b4da2decc039",
                    "path": "<Gamepad>/leftTrigger",
                    "interactions": "",
                    "processors": "",
                    "groups": "",
                    "action": "StickButton7",
                    "isComposite": false,
                    "isPartOfComposite": false
                },
                {
                    "name": "",
                    "id": "bdc6a35d-b6fe-4576-8775-8bf01ef5bc7e",
                    "path": "<HID::Logitech Logitech Extreme 3D>/button8",
                    "interactions": "",
                    "processors": "",
                    "groups": "",
                    "action": "StickButton8",
                    "isComposite": false,
                    "isPartOfComposite": false
                },
                {
                    "name": "",
                    "id": "ebea7ae9-4fbf-4112-9542-df887224dadd",
                    "path": "<Gamepad>/leftShoulder",
                    "interactions": "",
                    "processors": "",
                    "groups": "",
                    "action": "StickButton8",
                    "isComposite": false,
                    "isPartOfComposite": false
                },
                {
                    "name": "",
                    "id": "9539e6fb-f763-44a2-9617-06394ca855e8",
                    "path": "<HID::Logitech Logitech Extreme 3D>/button9",
                    "interactions": "",
                    "processors": "",
                    "groups": "",
                    "action": "StickButton9",
                    "isComposite": false,
                    "isPartOfComposite": false
                },
                {
                    "name": "",
                    "id": "91982a03-6550-4561-b431-f5b1a8dd1e62",
                    "path": "<Gamepad>/select",
                    "interactions": "",
                    "processors": "",
                    "groups": "",
                    "action": "StickButton9",
                    "isComposite": false,
                    "isPartOfComposite": false
                },
                {
                    "name": "",
                    "id": "291c8153-7739-4697-a3b4-5ecb970f7a2a",
                    "path": "<HID::Logitech Logitech Extreme 3D>/button10",
                    "interactions": "",
                    "processors": "",
                    "groups": "",
                    "action": "StickButton10",
                    "isComposite": false,
                    "isPartOfComposite": false
                },
                {
                    "name": "",
                    "id": "4df7ab87-b06e-4963-82de-d148672d9a3b",
                    "path": "<Gamepad>/start",
                    "interactions": "",
                    "processors": "",
                    "groups": "",
                    "action": "StickButton10",
                    "isComposite": false,
                    "isPartOfComposite": false
                },
                {
                    "name": "",
                    "id": "52204883-93c0-4c62-9912-998469169660",
                    "path": "<HID::Logitech Logitech Extreme 3D>/button11",
                    "interactions": "",
                    "processors": "",
                    "groups": "",
                    "action": "StickButton11",
                    "isComposite": false,
                    "isPartOfComposite": false
                },
                {
                    "name": "",
                    "id": "149eef28-3e83-4d97-9352-9c378d993ca5",
                    "path": "<Gamepad>/leftStickPress",
                    "interactions": "",
                    "processors": "",
                    "groups": "",
                    "action": "StickButton11",
                    "isComposite": false,
                    "isPartOfComposite": false
                },
                {
                    "name": "",
                    "id": "79a0ef13-23d0-4b9e-87a5-086bbd182a86",
                    "path": "<HID::Logitech Logitech Extreme 3D>/button12",
                    "interactions": "",
                    "processors": "",
                    "groups": "",
                    "action": "StickButton12",
                    "isComposite": false,
                    "isPartOfComposite": false
                },
                {
                    "name": "",
                    "id": "1d82e21a-e1ee-4fc8-9de1-8cac4e2b3fa8",
                    "path": "<Gamepad>/rightStickPress",
                    "interactions": "",
                    "processors": "",
                    "groups": "",
                    "action": "StickButton12",
                    "isComposite": false,
                    "isPartOfComposite": false
                }
            ]
        },
        {
            "name": "DroneControl",
            "id": "6165d4c4-139d-4d98-8c46-7d89edbfe8ac",
            "actions": [
                {
                    "name": "RotateX",
                    "type": "Value",
                    "id": "349ff54f-8c04-401a-ba77-24890f141efd",
                    "expectedControlType": "Axis",
                    "processors": "",
                    "interactions": "",
                    "initialStateCheck": true
                },
                {
                    "name": "RotateZ",
                    "type": "Value",
                    "id": "fe7ec423-1ec4-4e1e-892e-cd92e5284d81",
                    "expectedControlType": "Axis",
                    "processors": "Invert",
                    "interactions": "",
                    "initialStateCheck": true
                },
                {
                    "name": "RotateY",
                    "type": "Value",
                    "id": "3d2458d9-7cca-4ef5-ba80-51c22290f785",
                    "expectedControlType": "Axis",
                    "processors": "",
                    "interactions": "",
                    "initialStateCheck": true
                },
                {
                    "name": "Throttle",
                    "type": "Value",
                    "id": "e7f41168-2fb4-46bb-b880-59f0dae7a022",
                    "expectedControlType": "Axis",
                    "processors": "",
                    "interactions": "",
                    "initialStateCheck": true
                },
                {
                    "name": "CrossX",
                    "type": "Value",
                    "id": "712869a5-ac2f-4000-be14-48fc1fc2077f",
                    "expectedControlType": "Axis",
                    "processors": "",
                    "interactions": "",
                    "initialStateCheck": true
                },
                {
                    "name": "CrossY",
                    "type": "Value",
                    "id": "ee5d1d1b-eee7-4ea0-a3c3-eaeea141f2e6",
                    "expectedControlType": "Axis",
                    "processors": "",
                    "interactions": "",
                    "initialStateCheck": true
                },
                {
                    "name": "CrossXLeft",
                    "type": "Button",
                    "id": "3c08ce76-41bc-4dd9-896c-46c85323e649",
                    "expectedControlType": "Button",
                    "processors": "",
                    "interactions": "",
                    "initialStateCheck": false
                },
                {
                    "name": "CrossXRight",
                    "type": "Button",
                    "id": "0499a651-1f5d-4776-9b41-3c6ff9e81a0f",
                    "expectedControlType": "Button",
                    "processors": "",
                    "interactions": "",
                    "initialStateCheck": false
                },
                {
                    "name": "CrossYUp",
                    "type": "Button",
                    "id": "c4d36966-7e3d-4664-aea4-d805a1c35635",
                    "expectedControlType": "Button",
                    "processors": "",
                    "interactions": "",
                    "initialStateCheck": false
                },
                {
                    "name": "CrossYDown",
                    "type": "Button",
                    "id": "a0c85c04-b4d2-44ce-8adf-6ee1963ddfb4",
                    "expectedControlType": "Button",
                    "processors": "",
                    "interactions": "",
                    "initialStateCheck": false
                },
                {
                    "name": "Trigger1",
                    "type": "Button",
                    "id": "9e362b59-131a-4f45-9f1d-98f67da38452",
                    "expectedControlType": "Button",
                    "processors": "",
                    "interactions": "",
                    "initialStateCheck": false
                },
                {
                    "name": "Back2",
                    "type": "Button",
                    "id": "72bbea97-6829-4cc3-b963-c6444497b302",
                    "expectedControlType": "Button",
                    "processors": "",
                    "interactions": "",
                    "initialStateCheck": false
                },
                {
                    "name": "ButtonSouth3",
                    "type": "Button",
                    "id": "9ec7c992-8972-4e0b-a1ad-96c172f536fa",
                    "expectedControlType": "Button",
                    "processors": "",
                    "interactions": "",
                    "initialStateCheck": false
                },
                {
                    "name": "ButtonEast4",
                    "type": "Button",
                    "id": "c99f8353-9434-4bd1-aedb-a05953c49e09",
                    "expectedControlType": "Button",
                    "processors": "",
                    "interactions": "",
                    "initialStateCheck": false
                },
                {
                    "name": "ButtonWest5",
                    "type": "Button",
                    "id": "e958e803-52ce-4535-9aba-47d7cc052d9e",
                    "expectedControlType": "Button",
                    "processors": "",
                    "interactions": "",
                    "initialStateCheck": false
                },
                {
                    "name": "ButtonNorth6",
                    "type": "Button",
                    "id": "d82b929c-d475-4258-878f-dcd2795b7d75",
                    "expectedControlType": "Button",
                    "processors": "",
                    "interactions": "",
                    "initialStateCheck": false
                },
                {
                    "name": "LeftTrigger7",
                    "type": "Button",
                    "id": "a53d0e45-8aa5-431c-af5d-2fdefabdff0a",
                    "expectedControlType": "Button",
                    "processors": "",
                    "interactions": "",
                    "initialStateCheck": false
                },
                {
                    "name": "LeftShoulder8",
                    "type": "Button",
                    "id": "975c5a97-f419-48e9-aebd-01f8aba2451d",
                    "expectedControlType": "Button",
                    "processors": "",
                    "interactions": "",
                    "initialStateCheck": false
                },
                {
                    "name": "StickLeft9",
                    "type": "Button",
                    "id": "f08808ab-7088-41d7-a8ab-58483ab192ea",
                    "expectedControlType": "Button",
                    "processors": "",
                    "interactions": "",
                    "initialStateCheck": false
                },
                {
                    "name": "StickRight10",
                    "type": "Button",
                    "id": "dc53970a-0068-461a-b143-40f7148a34e6",
                    "expectedControlType": "Button",
                    "processors": "",
                    "interactions": "",
                    "initialStateCheck": false
                },
                {
                    "name": "ButtonLeft11",
                    "type": "Button",
                    "id": "72d34523-bb5f-4101-9188-f22b6452d4c9",
                    "expectedControlType": "Button",
                    "processors": "",
                    "interactions": "",
                    "initialStateCheck": false
                },
                {
                    "name": "ButtonRight12",
                    "type": "Button",
                    "id": "7098b264-1ec5-4823-9187-0eae953f2082",
                    "expectedControlType": "Button",
                    "processors": "",
                    "interactions": "",
                    "initialStateCheck": false
                }
            ],
            "bindings": [
                {
                    "name": "",
                    "id": "9979849d-6372-458f-8261-d8ee1f9933b2",
                    "path": "<HID::Logitech Logitech Extreme 3D>/stick/y",
                    "interactions": "",
                    "processors": "",
                    "groups": "",
                    "action": "RotateX",
                    "isComposite": false,
                    "isPartOfComposite": false
                },
                {
                    "name": "",
                    "id": "8786ae19-5908-459e-b492-8952823ecddd",
                    "path": "<Gamepad>/leftStick/y",
                    "interactions": "",
                    "processors": "",
                    "groups": "",
                    "action": "RotateX",
                    "isComposite": false,
                    "isPartOfComposite": false
                },
                {
                    "name": "",
                    "id": "8b626ecd-498a-4136-b089-695e2355ecb7",
                    "path": "<HID::Logitech Logitech Extreme 3D>/stick/x",
                    "interactions": "",
                    "processors": "",
                    "groups": "",
                    "action": "RotateZ",
                    "isComposite": false,
                    "isPartOfComposite": false
                },
                {
                    "name": "",
                    "id": "3e9694a0-2b01-4b42-bc7f-eadd8d461a4f",
                    "path": "<Gamepad>/leftStick/x",
                    "interactions": "",
                    "processors": "",
                    "groups": "",
                    "action": "RotateZ",
                    "isComposite": false,
                    "isPartOfComposite": false
                },
                {
                    "name": "",
                    "id": "9f1daf84-8537-4fa4-898a-9817f636ea95",
                    "path": "<HID::Logitech Logitech Extreme 3D>/rz",
                    "interactions": "",
                    "processors": "",
                    "groups": "",
                    "action": "RotateY",
                    "isComposite": false,
                    "isPartOfComposite": false
                },
                {
                    "name": "",
                    "id": "88bc027f-6e2d-46ec-943c-84abef59e8d0",
                    "path": "<Gamepad>/rightStick/x",
                    "interactions": "",
                    "processors": "",
                    "groups": "",
                    "action": "RotateY",
                    "isComposite": false,
                    "isPartOfComposite": false
                },
                {
                    "name": "",
                    "id": "7530e3cb-a4d6-4a20-a5c8-ca4d8c14b9b4",
                    "path": "<HID::Logitech Logitech Extreme 3D>/slider",
                    "interactions": "",
                    "processors": "Invert,Offset(offset=1),Scale(factor=0.5)",
                    "groups": "",
                    "action": "Throttle",
                    "isComposite": false,
                    "isPartOfComposite": false
                },
                {
                    "name": "",
                    "id": "9bb6c557-22ce-4f52-a6e5-c6e57e799ef5",
                    "path": "<Gamepad>/rightStick/y",
                    "interactions": "",
                    "processors": "",
                    "groups": "",
                    "action": "Throttle",
                    "isComposite": false,
                    "isPartOfComposite": false
                },
                {
                    "name": "",
                    "id": "fa9d9cf3-d6dd-4071-99b7-91c1f241e04c",
                    "path": "<HID::Logitech Logitech Extreme 3D>/hat/x",
                    "interactions": "",
                    "processors": "",
                    "groups": "",
                    "action": "CrossX",
                    "isComposite": false,
                    "isPartOfComposite": false
                },
                {
                    "name": "",
                    "id": "ed277e82-c79d-492d-b751-2f23a67f86ba",
                    "path": "<Gamepad>/dpad/x",
                    "interactions": "",
                    "processors": "",
                    "groups": "",
                    "action": "CrossX",
                    "isComposite": false,
                    "isPartOfComposite": false
                },
                {
                    "name": "",
                    "id": "14ca58d8-0e11-4344-8d6f-da20d35f9495",
                    "path": "<HID::Logitech Logitech Extreme 3D>/hat/y",
                    "interactions": "",
                    "processors": "",
                    "groups": "",
                    "action": "CrossY",
                    "isComposite": false,
                    "isPartOfComposite": false
                },
                {
                    "name": "",
                    "id": "4ea2f356-275d-4f49-88f1-9a5ec28bb65d",
                    "path": "<Gamepad>/dpad/y",
                    "interactions": "",
                    "processors": "",
                    "groups": "",
                    "action": "CrossY",
                    "isComposite": false,
                    "isPartOfComposite": false
                },
                {
                    "name": "",
                    "id": "9f87efa5-dcd4-4cde-bb6d-00d93a2f92f8",
                    "path": "<HID::Logitech Logitech Extreme 3D>/hat/left",
                    "interactions": "",
                    "processors": "",
                    "groups": "",
                    "action": "CrossXLeft",
                    "isComposite": false,
                    "isPartOfComposite": false
                },
                {
                    "name": "",
                    "id": "a4ae2aa2-7a71-4e73-8e2a-f382762c4b8a",
                    "path": "<Gamepad>/dpad/left",
                    "interactions": "",
                    "processors": "",
                    "groups": "",
                    "action": "CrossXLeft",
                    "isComposite": false,
                    "isPartOfComposite": false
                },
                {
                    "name": "",
                    "id": "872efb8a-6487-442a-a23f-f1778ceb3a0d",
                    "path": "<HID::Logitech Logitech Extreme 3D>/hat/right",
                    "interactions": "",
                    "processors": "",
                    "groups": "",
                    "action": "CrossXRight",
                    "isComposite": false,
                    "isPartOfComposite": false
                },
                {
                    "name": "",
                    "id": "e8655640-b769-4223-b2c7-831f9750c9d7",
                    "path": "<Gamepad>/dpad/right",
                    "interactions": "",
                    "processors": "",
                    "groups": "",
                    "action": "CrossXRight",
                    "isComposite": false,
                    "isPartOfComposite": false
                },
                {
                    "name": "",
                    "id": "0b039704-ce19-466b-ad79-c85f96fd2902",
                    "path": "<HID::Logitech Logitech Extreme 3D>/hat/up",
                    "interactions": "",
                    "processors": "",
                    "groups": "",
                    "action": "CrossYUp",
                    "isComposite": false,
                    "isPartOfComposite": false
                },
                {
                    "name": "",
                    "id": "07e8572a-1adc-41e5-8ba1-c694adf93e6b",
                    "path": "<Gamepad>/dpad/up",
                    "interactions": "",
                    "processors": "",
                    "groups": "",
                    "action": "CrossYUp",
                    "isComposite": false,
                    "isPartOfComposite": false
                },
                {
                    "name": "",
                    "id": "855005f5-5413-42a7-80a5-d266085eae4c",
                    "path": "<HID::Logitech Logitech Extreme 3D>/hat/down",
                    "interactions": "",
                    "processors": "",
                    "groups": "",
                    "action": "CrossYDown",
                    "isComposite": false,
                    "isPartOfComposite": false
                },
                {
                    "name": "",
                    "id": "bf0210dc-ee31-4e5d-b713-df354c01e38a",
                    "path": "<Gamepad>/dpad/down",
                    "interactions": "",
                    "processors": "",
                    "groups": "",
                    "action": "CrossYDown",
                    "isComposite": false,
                    "isPartOfComposite": false
                },
                {
                    "name": "",
                    "id": "5dc3a23d-e12d-41e5-a41f-fe3b2783a8fe",
                    "path": "<HID::Logitech Logitech Extreme 3D>/trigger",
                    "interactions": "",
                    "processors": "",
                    "groups": "",
                    "action": "Trigger1",
                    "isComposite": false,
                    "isPartOfComposite": false
                },
                {
                    "name": "",
                    "id": "1c77d983-0617-4069-9141-9f72fdaec411",
                    "path": "<Gamepad>/rightTrigger",
                    "interactions": "",
                    "processors": "",
                    "groups": "",
                    "action": "Trigger1",
                    "isComposite": false,
                    "isPartOfComposite": false
                },
                {
                    "name": "",
                    "id": "f146a7f3-d240-48f9-b497-e1e90a5b3703",
                    "path": "<HID::Logitech Logitech Extreme 3D>/button2",
                    "interactions": "",
                    "processors": "",
                    "groups": "",
                    "action": "Back2",
                    "isComposite": false,
                    "isPartOfComposite": false
                },
                {
                    "name": "",
                    "id": "963f607a-32c7-4e67-b5ca-cb3e1c45dbaf",
                    "path": "<Gamepad>/rightShoulder",
                    "interactions": "",
                    "processors": "",
                    "groups": "",
                    "action": "Back2",
                    "isComposite": false,
                    "isPartOfComposite": false
                },
                {
                    "name": "",
                    "id": "df0580e4-4640-4e7d-b07e-1a375d0eb86f",
                    "path": "<HID::Logitech Logitech Extreme 3D>/button3",
                    "interactions": "",
                    "processors": "",
                    "groups": "",
                    "action": "ButtonSouth3",
                    "isComposite": false,
                    "isPartOfComposite": false
                },
                {
                    "name": "",
                    "id": "2804dd33-d292-46f3-a41f-7bb1526472bd",
                    "path": "<Gamepad>/buttonSouth",
                    "interactions": "",
                    "processors": "",
                    "groups": "",
                    "action": "ButtonSouth3",
                    "isComposite": false,
                    "isPartOfComposite": false
                },
                {
                    "name": "",
                    "id": "e3fe274b-1792-4699-95b8-ca815c4b5129",
                    "path": "<HID::Logitech Logitech Extreme 3D>/button4",
                    "interactions": "",
                    "processors": "",
                    "groups": "",
                    "action": "ButtonEast4",
                    "isComposite": false,
                    "isPartOfComposite": false
                },
                {
                    "name": "",
                    "id": "d69ecc16-7c6a-4e6d-a3f5-cfb68969bdb9",
                    "path": "<Gamepad>/buttonEast",
                    "interactions": "",
                    "processors": "",
                    "groups": "",
                    "action": "ButtonEast4",
                    "isComposite": false,
                    "isPartOfComposite": false
                },
                {
                    "name": "",
                    "id": "6a92e24b-b2fa-4093-a7c1-e180a87e95e3",
                    "path": "<HID::Logitech Logitech Extreme 3D>/button5",
                    "interactions": "",
                    "processors": "",
                    "groups": "",
                    "action": "ButtonWest5",
                    "isComposite": false,
                    "isPartOfComposite": false
                },
                {
                    "name": "",
                    "id": "ed199503-1941-4a4a-951c-19da4ecbb060",
                    "path": "<Gamepad>/buttonWest",
                    "interactions": "",
                    "processors": "",
                    "groups": "",
                    "action": "ButtonWest5",
                    "isComposite": false,
                    "isPartOfComposite": false
                },
                {
                    "name": "",
                    "id": "7ff8beb4-b09d-4c3e-a149-7b223f2f80e7",
                    "path": "<HID::Logitech Logitech Extreme 3D>/button6",
                    "interactions": "",
                    "processors": "",
                    "groups": "",
                    "action": "ButtonNorth6",
                    "isComposite": false,
                    "isPartOfComposite": false
                },
                {
                    "name": "",
                    "id": "318dc43c-5662-460c-aa86-a8622fa0d34e",
                    "path": "<Gamepad>/buttonNorth",
                    "interactions": "",
                    "processors": "",
                    "groups": "",
                    "action": "ButtonNorth6",
                    "isComposite": false,
                    "isPartOfComposite": false
                },
                {
                    "name": "",
                    "id": "51247bb6-5edb-4bc8-8720-d46aab9a3391",
                    "path": "<HID::Logitech Logitech Extreme 3D>/button7",
                    "interactions": "",
                    "processors": "",
                    "groups": "",
                    "action": "LeftTrigger7",
                    "isComposite": false,
                    "isPartOfComposite": false
                },
                {
                    "name": "",
                    "id": "41398544-6f5f-4384-9f27-ef846f81af2e",
                    "path": "<Gamepad>/leftTrigger",
                    "interactions": "",
                    "processors": "",
                    "groups": "",
                    "action": "LeftTrigger7",
                    "isComposite": false,
                    "isPartOfComposite": false
                },
                {
                    "name": "",
                    "id": "b1d5e8cf-97a7-4b41-9ba3-5a2eb9aa496d",
                    "path": "<HID::Logitech Logitech Extreme 3D>/button8",
                    "interactions": "",
                    "processors": "",
                    "groups": "",
                    "action": "LeftShoulder8",
                    "isComposite": false,
                    "isPartOfComposite": false
                },
                {
                    "name": "",
                    "id": "65147afd-985e-4a58-bf22-6f0a7094da14",
                    "path": "<Gamepad>/leftShoulder",
                    "interactions": "",
                    "processors": "",
                    "groups": "",
                    "action": "LeftShoulder8",
                    "isComposite": false,
                    "isPartOfComposite": false
                },
                {
                    "name": "",
                    "id": "0fba7898-d89d-4c6c-af44-6a6d6147a380",
                    "path": "<HID::Logitech Logitech Extreme 3D>/button9",
                    "interactions": "",
                    "processors": "",
                    "groups": "",
                    "action": "StickLeft9",
                    "isComposite": false,
                    "isPartOfComposite": false
                },
                {
                    "name": "",
                    "id": "ba685f9d-82e7-4068-9ef4-7c4e86caf244",
                    "path": "<Gamepad>/select",
                    "interactions": "",
                    "processors": "",
                    "groups": "",
                    "action": "StickLeft9",
                    "isComposite": false,
                    "isPartOfComposite": false
                },
                {
                    "name": "",
                    "id": "22028c0c-afe4-4b92-939e-e926d64e2aeb",
                    "path": "<HID::Logitech Logitech Extreme 3D>/button10",
                    "interactions": "",
                    "processors": "",
                    "groups": "",
                    "action": "StickRight10",
                    "isComposite": false,
                    "isPartOfComposite": false
                },
                {
                    "name": "",
                    "id": "2de58598-0a2e-43b7-9173-7de5aa2ed180",
                    "path": "<Gamepad>/start",
                    "interactions": "",
                    "processors": "",
                    "groups": "",
                    "action": "StickRight10",
                    "isComposite": false,
                    "isPartOfComposite": false
                },
                {
                    "name": "",
                    "id": "03af753c-1048-4e2e-b0c9-af46fd27b874",
                    "path": "<HID::Logitech Logitech Extreme 3D>/button11",
                    "interactions": "",
                    "processors": "",
                    "groups": "",
                    "action": "ButtonLeft11",
                    "isComposite": false,
                    "isPartOfComposite": false
                },
                {
                    "name": "",
                    "id": "412f7fbc-8a57-4806-8ce0-d837fd17d5b9",
                    "path": "<Gamepad>/leftStickPress",
                    "interactions": "",
                    "processors": "",
                    "groups": "",
                    "action": "ButtonLeft11",
                    "isComposite": false,
                    "isPartOfComposite": false
                },
                {
                    "name": "",
                    "id": "b1dc1511-9929-4805-b7a7-24136636754a",
                    "path": "<HID::Logitech Logitech Extreme 3D>/button12",
                    "interactions": "",
                    "processors": "",
                    "groups": "",
                    "action": "ButtonRight12",
                    "isComposite": false,
                    "isPartOfComposite": false
                },
                {
                    "name": "",
                    "id": "db2c1a4f-3755-4d9f-9122-907def27c145",
                    "path": "<Gamepad>/rightStickPress",
                    "interactions": "",
                    "processors": "",
                    "groups": "",
                    "action": "ButtonRight12",
                    "isComposite": false,
                    "isPartOfComposite": false
                }
            ]
        },
        {
            "name": "DroneControl1",
            "id": "f7e36317-d55f-4370-b502-b3c6b35ef26f",
            "actions": [
                {
                    "name": "RotateX",
                    "type": "Value",
                    "id": "885905ed-0e17-41a2-89ff-66e7c3632433",
                    "expectedControlType": "Axis",
                    "processors": "",
                    "interactions": "",
                    "initialStateCheck": true
                },
                {
                    "name": "RotateZ",
                    "type": "Value",
                    "id": "406a022e-f815-466d-8a42-8df08914cd06",
                    "expectedControlType": "Axis",
                    "processors": "Invert",
                    "interactions": "",
                    "initialStateCheck": true
                },
                {
                    "name": "RotateY",
                    "type": "Value",
                    "id": "987067e2-96ff-4c0f-b62f-71736014487f",
                    "expectedControlType": "Axis",
                    "processors": "",
                    "interactions": "",
                    "initialStateCheck": true
                },
                {
                    "name": "Throttle",
                    "type": "Value",
                    "id": "b5f58a76-0885-42a8-97bc-3d1ff9cbb159",
                    "expectedControlType": "Axis",
                    "processors": "",
                    "interactions": "",
                    "initialStateCheck": true
                },
                {
                    "name": "CrossX",
                    "type": "Value",
                    "id": "e3a2af95-3958-4b92-af95-7458f933326f",
                    "expectedControlType": "Axis",
                    "processors": "",
                    "interactions": "",
                    "initialStateCheck": true
                },
                {
                    "name": "CrossY",
                    "type": "Value",
                    "id": "9d282227-ac5a-4293-9d1d-ab14526bc839",
                    "expectedControlType": "Axis",
                    "processors": "",
                    "interactions": "",
                    "initialStateCheck": true
                },
                {
                    "name": "CrossXLeft",
                    "type": "Button",
                    "id": "e1cb5c89-2b95-4895-ae3f-22c3bd784e3f",
                    "expectedControlType": "Button",
                    "processors": "",
                    "interactions": "",
                    "initialStateCheck": false
                },
                {
                    "name": "CrossXRight",
                    "type": "Button",
                    "id": "47117feb-3581-4c47-9ca2-209704cf1d8c",
                    "expectedControlType": "Button",
                    "processors": "",
                    "interactions": "",
                    "initialStateCheck": false
                },
                {
                    "name": "CrossYUp",
                    "type": "Button",
                    "id": "843129ba-03aa-4130-991d-0993e4c2242e",
                    "expectedControlType": "Button",
                    "processors": "",
                    "interactions": "",
                    "initialStateCheck": false
                },
                {
                    "name": "CrossYDown",
                    "type": "Button",
                    "id": "b28188d9-5034-4c92-91ff-23e81c3c3569",
                    "expectedControlType": "Button",
                    "processors": "",
                    "interactions": "",
                    "initialStateCheck": false
                },
                {
                    "name": "Trigger1",
                    "type": "Button",
                    "id": "29c77553-ec31-4db3-b8a7-6f170aee9bea",
                    "expectedControlType": "Button",
                    "processors": "",
                    "interactions": "",
                    "initialStateCheck": false
                },
                {
                    "name": "Back2",
                    "type": "Button",
                    "id": "18af266a-50a3-4e04-9a5f-ecf1d561e32b",
                    "expectedControlType": "Button",
                    "processors": "",
                    "interactions": "",
                    "initialStateCheck": false
                },
                {
                    "name": "ButtonSouth3",
                    "type": "Button",
                    "id": "a1d77e49-43d0-46a3-be8f-fa82b1cced1c",
                    "expectedControlType": "Button",
                    "processors": "",
                    "interactions": "",
                    "initialStateCheck": false
                },
                {
                    "name": "ButtonEast4",
                    "type": "Button",
                    "id": "4f11db86-3a8a-4e68-b331-5788cedcc600",
                    "expectedControlType": "Button",
                    "processors": "",
                    "interactions": "",
                    "initialStateCheck": false
                },
                {
                    "name": "ButtonWest5",
                    "type": "Button",
                    "id": "1601d785-bd02-4ce0-85f8-4d5cebe86e5d",
                    "expectedControlType": "Button",
                    "processors": "",
                    "interactions": "",
                    "initialStateCheck": false
                },
                {
                    "name": "ButtonNorth6",
                    "type": "Button",
                    "id": "a7315fa3-fcc6-4aea-b60c-f801fb8f76dc",
                    "expectedControlType": "Button",
                    "processors": "",
                    "interactions": "",
                    "initialStateCheck": false
                },
                {
                    "name": "LeftTrigger7",
                    "type": "Button",
                    "id": "9466d17e-bea2-40d4-927e-522e40f3ecb8",
                    "expectedControlType": "Button",
                    "processors": "",
                    "interactions": "",
                    "initialStateCheck": false
                },
                {
                    "name": "LeftShoulder8",
                    "type": "Button",
                    "id": "2ddb4d5a-e54e-46b8-bc74-f983da03ccc4",
                    "expectedControlType": "Button",
                    "processors": "",
                    "interactions": "",
                    "initialStateCheck": false
                },
                {
                    "name": "StickLeft9",
                    "type": "Button",
                    "id": "4faa9750-e6a2-43d5-8f57-f03acab55c8b",
                    "expectedControlType": "Button",
                    "processors": "",
                    "interactions": "",
                    "initialStateCheck": false
                },
                {
                    "name": "StickRight10",
                    "type": "Button",
                    "id": "b953639d-00eb-4867-b145-01165818fe8b",
                    "expectedControlType": "Button",
                    "processors": "",
                    "interactions": "",
                    "initialStateCheck": false
                },
                {
                    "name": "ButtonLeft11",
                    "type": "Button",
                    "id": "fc53358d-92b1-48c4-8482-f9df718f3482",
                    "expectedControlType": "Button",
                    "processors": "",
                    "interactions": "",
                    "initialStateCheck": false
                },
                {
                    "name": "ButtonRight12",
                    "type": "Button",
                    "id": "ce4a6bd3-a8f4-40a7-bdf0-dba312e73604",
                    "expectedControlType": "Button",
                    "processors": "",
                    "interactions": "",
                    "initialStateCheck": false
                }
            ],
            "bindings": [
                {
                    "name": "",
                    "id": "b2dbc8eb-1c55-4a61-97a2-4692b283f97d",
                    "path": "<Gamepad>/leftStick/y",
                    "interactions": "",
                    "processors": "",
                    "groups": "",
                    "action": "RotateX",
                    "isComposite": false,
                    "isPartOfComposite": false
                },
                {
                    "name": "",
                    "id": "071a4b9d-8b17-48c0-8d83-e5b112212088",
                    "path": "<Gamepad>/leftStick/x",
                    "interactions": "",
                    "processors": "",
                    "groups": "",
                    "action": "RotateZ",
                    "isComposite": false,
                    "isPartOfComposite": false
                },
                {
                    "name": "",
                    "id": "dbdf3e7e-f163-41a5-9a6e-4b23af21defb",
                    "path": "<Gamepad>/rightStick/x",
                    "interactions": "",
                    "processors": "",
                    "groups": "",
                    "action": "RotateY",
                    "isComposite": false,
                    "isPartOfComposite": false
                },
                {
                    "name": "",
                    "id": "95365043-0046-4f58-8948-630509d0dbd8",
                    "path": "<Gamepad>/rightStick/y",
                    "interactions": "",
                    "processors": "",
                    "groups": "",
                    "action": "Throttle",
                    "isComposite": false,
                    "isPartOfComposite": false
                },
                {
                    "name": "",
                    "id": "d6a07685-5344-4dd7-8b21-cfd239f93b7a",
                    "path": "<Gamepad>/dpad/x",
                    "interactions": "",
                    "processors": "",
                    "groups": "",
                    "action": "CrossX",
                    "isComposite": false,
                    "isPartOfComposite": false
                },
                {
                    "name": "",
                    "id": "a389761b-9533-4a1e-aa16-9a7a9d2590a8",
                    "path": "<Gamepad>/dpad/y",
                    "interactions": "",
                    "processors": "",
                    "groups": "",
                    "action": "CrossY",
                    "isComposite": false,
                    "isPartOfComposite": false
                },
                {
                    "name": "",
                    "id": "bde59b30-89df-4751-a7c3-42e535342f4c",
                    "path": "<Gamepad>/dpad/left",
                    "interactions": "",
                    "processors": "",
                    "groups": "",
                    "action": "CrossXLeft",
                    "isComposite": false,
                    "isPartOfComposite": false
                },
                {
                    "name": "",
                    "id": "f6ff0bbc-d7a7-4f8a-87da-2cb0a6a5cfe6",
                    "path": "<Gamepad>/dpad/right",
                    "interactions": "",
                    "processors": "",
                    "groups": "",
                    "action": "CrossXRight",
                    "isComposite": false,
                    "isPartOfComposite": false
                },
                {
                    "name": "",
                    "id": "b4b089ba-9e86-4eec-b181-e9d45a014238",
                    "path": "<Gamepad>/dpad/up",
                    "interactions": "",
                    "processors": "",
                    "groups": "",
                    "action": "CrossYUp",
                    "isComposite": false,
                    "isPartOfComposite": false
                },
                {
                    "name": "",
                    "id": "90f1dd1c-6ec7-4617-aeff-929f9ac3abbc",
                    "path": "<Gamepad>/dpad/down",
                    "interactions": "",
                    "processors": "",
                    "groups": "",
                    "action": "CrossYDown",
                    "isComposite": false,
                    "isPartOfComposite": false
                },
                {
                    "name": "",
                    "id": "9d74eb19-2cec-44be-8d93-9e3211a5bfb0",
                    "path": "<Gamepad>/rightTrigger",
                    "interactions": "",
                    "processors": "",
                    "groups": "",
                    "action": "Trigger1",
                    "isComposite": false,
                    "isPartOfComposite": false
                },
                {
                    "name": "",
                    "id": "fb990918-63b7-4096-a5f3-8a0e9b52106a",
                    "path": "<Gamepad>/rightShoulder",
                    "interactions": "",
                    "processors": "",
                    "groups": "",
                    "action": "Back2",
                    "isComposite": false,
                    "isPartOfComposite": false
                },
                {
                    "name": "",
                    "id": "dac4465d-edba-44f5-a2e5-f9b33fadb604",
                    "path": "<Gamepad>/buttonSouth",
                    "interactions": "",
                    "processors": "",
                    "groups": "",
                    "action": "ButtonSouth3",
                    "isComposite": false,
                    "isPartOfComposite": false
                },
                {
                    "name": "",
                    "id": "0db6f909-f46c-4f30-b9c5-e1d815fc5cbc",
                    "path": "<Gamepad>/buttonEast",
                    "interactions": "",
                    "processors": "",
                    "groups": "",
                    "action": "ButtonEast4",
                    "isComposite": false,
                    "isPartOfComposite": false
                },
                {
                    "name": "",
                    "id": "56aea8be-cce3-4d9f-9c9c-86298102de8d",
                    "path": "<Gamepad>/buttonWest",
                    "interactions": "",
                    "processors": "",
                    "groups": "",
                    "action": "ButtonWest5",
                    "isComposite": false,
                    "isPartOfComposite": false
                },
                {
                    "name": "",
                    "id": "8593d9e9-3fc1-4a10-a30a-5238882898b8",
                    "path": "<Gamepad>/buttonNorth",
                    "interactions": "",
                    "processors": "",
                    "groups": "",
                    "action": "ButtonNorth6",
                    "isComposite": false,
                    "isPartOfComposite": false
                },
                {
                    "name": "",
                    "id": "00fdf7b2-1d1b-4caf-94d3-843e9dfb9dbd",
                    "path": "<Gamepad>/leftTrigger",
                    "interactions": "",
                    "processors": "",
                    "groups": "",
                    "action": "LeftTrigger7",
                    "isComposite": false,
                    "isPartOfComposite": false
                },
                {
                    "name": "",
                    "id": "a95b9d1e-299d-46e5-9f6a-769860a492c2",
                    "path": "<Gamepad>/leftShoulder",
                    "interactions": "",
                    "processors": "",
                    "groups": "",
                    "action": "LeftShoulder8",
                    "isComposite": false,
                    "isPartOfComposite": false
                },
                {
                    "name": "",
                    "id": "4bdc4240-b7ab-415b-b6e1-d5e20c6893f5",
                    "path": "<Gamepad>/select",
                    "interactions": "",
                    "processors": "",
                    "groups": "",
                    "action": "StickLeft9",
                    "isComposite": false,
                    "isPartOfComposite": false
                },
                {
                    "name": "",
                    "id": "f77a29fd-51e5-4a54-bc03-a1a83b767154",
                    "path": "<Gamepad>/start",
                    "interactions": "",
                    "processors": "",
                    "groups": "",
                    "action": "StickRight10",
                    "isComposite": false,
                    "isPartOfComposite": false
                },
                {
                    "name": "",
                    "id": "ea373bce-54ca-42ec-b687-8446a851420c",
                    "path": "<Gamepad>/leftStickPress",
                    "interactions": "",
                    "processors": "",
                    "groups": "",
                    "action": "ButtonLeft11",
                    "isComposite": false,
                    "isPartOfComposite": false
                },
                {
                    "name": "",
                    "id": "086cbb07-6c84-4ed7-a6d5-e0003c5e958c",
                    "path": "<Gamepad>/rightStickPress",
                    "interactions": "",
                    "processors": "",
                    "groups": "",
                    "action": "ButtonRight12",
                    "isComposite": false,
                    "isPartOfComposite": false
                }
            ]
        },
        {
            "name": "DroneControl2",
            "id": "495bac88-9e55-4471-aed0-8f7ef815db7a",
            "actions": [
                {
                    "name": "RotateX",
                    "type": "Value",
                    "id": "91b40175-2530-4f68-8c4d-bf5ae167d117",
                    "expectedControlType": "Axis",
                    "processors": "",
                    "interactions": "",
                    "initialStateCheck": true
                },
                {
                    "name": "RotateZ",
                    "type": "Value",
                    "id": "b8db0fc9-6548-433e-82b1-5fe305abe24a",
                    "expectedControlType": "Axis",
                    "processors": "Invert",
                    "interactions": "",
                    "initialStateCheck": true
                },
                {
                    "name": "RotateY",
                    "type": "Value",
                    "id": "b2d48d78-2959-4eee-9333-a1c72bdc9a5e",
                    "expectedControlType": "Axis",
                    "processors": "",
                    "interactions": "",
                    "initialStateCheck": true
                },
                {
                    "name": "Throttle",
                    "type": "Value",
                    "id": "9f7e6771-3dd0-487c-9a21-276376bd7fb5",
                    "expectedControlType": "Axis",
                    "processors": "",
                    "interactions": "",
                    "initialStateCheck": true
                },
                {
                    "name": "CrossX",
                    "type": "Value",
                    "id": "1890f2b6-a4a7-4872-8723-84ca685edf45",
                    "expectedControlType": "Axis",
                    "processors": "",
                    "interactions": "",
                    "initialStateCheck": true
                },
                {
                    "name": "CrossY",
                    "type": "Value",
                    "id": "3825dd4e-a4f9-41ec-91da-b04a76649394",
                    "expectedControlType": "Axis",
                    "processors": "",
                    "interactions": "",
                    "initialStateCheck": true
                },
                {
                    "name": "CrossXLeft",
                    "type": "Button",
                    "id": "9049838b-fd87-48f2-be41-ec6c1988675d",
                    "expectedControlType": "Button",
                    "processors": "",
                    "interactions": "",
                    "initialStateCheck": false
                },
                {
                    "name": "CrossXRight",
                    "type": "Button",
                    "id": "8e0bcfb7-9119-49de-b8a3-113390cf6c00",
                    "expectedControlType": "Button",
                    "processors": "",
                    "interactions": "",
                    "initialStateCheck": false
                },
                {
                    "name": "CrossYUp",
                    "type": "Button",
                    "id": "a97fa51b-636c-49e6-a12f-5a27e50ae542",
                    "expectedControlType": "Button",
                    "processors": "",
                    "interactions": "",
                    "initialStateCheck": false
                },
                {
                    "name": "CrossYDown",
                    "type": "Button",
                    "id": "efdd2428-60ec-4162-854f-fc40d7fdeeb6",
                    "expectedControlType": "Button",
                    "processors": "",
                    "interactions": "",
                    "initialStateCheck": false
                },
                {
                    "name": "Trigger1",
                    "type": "Button",
                    "id": "eba99557-49cd-4da1-9b89-6df2b78c1591",
                    "expectedControlType": "Button",
                    "processors": "",
                    "interactions": "",
                    "initialStateCheck": false
                },
                {
                    "name": "Back2",
                    "type": "Button",
                    "id": "9d069007-eb33-4ef9-b5ba-dd844cf37165",
                    "expectedControlType": "Button",
                    "processors": "",
                    "interactions": "",
                    "initialStateCheck": false
                },
                {
                    "name": "ButtonSouth3",
                    "type": "Button",
                    "id": "3742da5b-bf3b-4a3d-a58d-c86cb49fdf16",
                    "expectedControlType": "Button",
                    "processors": "",
                    "interactions": "",
                    "initialStateCheck": false
                },
                {
                    "name": "ButtonEast4",
                    "type": "Button",
                    "id": "9d87ab7d-b02b-438a-a15e-842ad4bb44c0",
                    "expectedControlType": "Button",
                    "processors": "",
                    "interactions": "",
                    "initialStateCheck": false
                },
                {
                    "name": "ButtonWest5",
                    "type": "Button",
                    "id": "26e74b29-e01f-4f94-8af0-3e72e58d8a9f",
                    "expectedControlType": "Button",
                    "processors": "",
                    "interactions": "",
                    "initialStateCheck": false
                },
                {
                    "name": "ButtonNorth6",
                    "type": "Button",
                    "id": "b558548b-e3fc-4516-8203-dca01f99c657",
                    "expectedControlType": "Button",
                    "processors": "",
                    "interactions": "",
                    "initialStateCheck": false
                },
                {
                    "name": "LeftTrigger7",
                    "type": "Button",
                    "id": "23da72f0-c85b-48a5-b811-dd1fde08dc20",
                    "expectedControlType": "Button",
                    "processors": "",
                    "interactions": "",
                    "initialStateCheck": false
                },
                {
                    "name": "LeftShoulder8",
                    "type": "Button",
                    "id": "0225c7c7-8f0c-4e22-9600-e82afee85ca8",
                    "expectedControlType": "Button",
                    "processors": "",
                    "interactions": "",
                    "initialStateCheck": false
                },
                {
                    "name": "StickLeft9",
                    "type": "Button",
                    "id": "459178ab-d5fa-47f4-bafe-e06e8cba4cb4",
                    "expectedControlType": "Button",
                    "processors": "",
                    "interactions": "",
                    "initialStateCheck": false
                },
                {
                    "name": "StickRight10",
                    "type": "Button",
                    "id": "42a1dd76-4c6e-41de-b033-2dfed46d0311",
                    "expectedControlType": "Button",
                    "processors": "",
                    "interactions": "",
                    "initialStateCheck": false
                },
                {
                    "name": "ButtonLeft11",
                    "type": "Button",
                    "id": "cc325cb0-81c2-4d48-90c5-f7e7c4b24a4a",
                    "expectedControlType": "Button",
                    "processors": "",
                    "interactions": "",
                    "initialStateCheck": false
                },
                {
                    "name": "ButtonRight12",
                    "type": "Button",
                    "id": "a6ae8f04-d6e1-487f-a6e2-ee412c5db771",
                    "expectedControlType": "Button",
                    "processors": "",
                    "interactions": "",
                    "initialStateCheck": false
                }
            ],
            "bindings": [
                {
                    "name": "",
                    "id": "0defcca3-2e65-4769-95da-edd677b48f77",
                    "path": "<HID::Logitech Logitech Extreme 3D>/stick/y",
                    "interactions": "",
                    "processors": "",
                    "groups": "",
                    "action": "RotateX",
                    "isComposite": false,
                    "isPartOfComposite": false
                },
                {
                    "name": "",
                    "id": "16db2611-4800-4349-9db3-32338e5f0c8c",
                    "path": "<HID::Logitech Logitech Extreme 3D>/stick/x",
                    "interactions": "",
                    "processors": "",
                    "groups": "",
                    "action": "RotateZ",
                    "isComposite": false,
                    "isPartOfComposite": false
                },
                {
                    "name": "",
                    "id": "70511244-4f74-4949-baa4-7e955dcde83d",
                    "path": "<HID::Logitech Logitech Extreme 3D>/rz",
                    "interactions": "",
                    "processors": "",
                    "groups": "",
                    "action": "RotateY",
                    "isComposite": false,
                    "isPartOfComposite": false
                },
                {
                    "name": "",
                    "id": "ba92137d-9b4a-44a1-a010-3bc1f37df165",
                    "path": "<HID::Logitech Logitech Extreme 3D>/slider",
                    "interactions": "",
                    "processors": "Invert,Offset(offset=1),Scale(factor=0.5)",
                    "groups": "",
                    "action": "Throttle",
                    "isComposite": false,
                    "isPartOfComposite": false
                },
                {
                    "name": "",
                    "id": "46e8a79d-0ba0-4a14-ba83-4055e66ba219",
                    "path": "<HID::Logitech Logitech Extreme 3D>/hat/x",
                    "interactions": "",
                    "processors": "",
                    "groups": "",
                    "action": "CrossX",
                    "isComposite": false,
                    "isPartOfComposite": false
                },
                {
                    "name": "",
                    "id": "04bffb3f-358f-413b-a3ee-529aea3bfa61",
                    "path": "<HID::Logitech Logitech Extreme 3D>/hat/y",
                    "interactions": "",
                    "processors": "",
                    "groups": "",
                    "action": "CrossY",
                    "isComposite": false,
                    "isPartOfComposite": false
                },
                {
                    "name": "",
                    "id": "57c49dd5-02d1-49a4-9f8a-337d29d48a85",
                    "path": "<HID::Logitech Logitech Extreme 3D>/hat/left",
                    "interactions": "",
                    "processors": "",
                    "groups": "",
                    "action": "CrossXLeft",
                    "isComposite": false,
                    "isPartOfComposite": false
                },
                {
                    "name": "",
                    "id": "30b747e4-8d9f-4e9d-8698-9f5e8e40511a",
                    "path": "<HID::Logitech Logitech Extreme 3D>/hat/right",
                    "interactions": "",
                    "processors": "",
                    "groups": "",
                    "action": "CrossXRight",
                    "isComposite": false,
                    "isPartOfComposite": false
                },
                {
                    "name": "",
                    "id": "0963210a-5c40-4785-bbcb-55add3c57949",
                    "path": "<HID::Logitech Logitech Extreme 3D>/hat/up",
                    "interactions": "",
                    "processors": "",
                    "groups": "",
                    "action": "CrossYUp",
                    "isComposite": false,
                    "isPartOfComposite": false
                },
                {
                    "name": "",
                    "id": "599f7971-6f28-4698-9784-754e6bc31723",
                    "path": "<HID::Logitech Logitech Extreme 3D>/hat/down",
                    "interactions": "",
                    "processors": "",
                    "groups": "",
                    "action": "CrossYDown",
                    "isComposite": false,
                    "isPartOfComposite": false
                },
                {
                    "name": "",
                    "id": "067f21d8-6a25-4ef9-9a5b-0e08ba548e70",
                    "path": "<HID::Logitech Logitech Extreme 3D>/trigger",
                    "interactions": "",
                    "processors": "",
                    "groups": "",
                    "action": "Trigger1",
                    "isComposite": false,
                    "isPartOfComposite": false
                },
                {
                    "name": "",
                    "id": "efe7db45-441e-4076-b721-16631ef2214f",
                    "path": "<HID::Logitech Logitech Extreme 3D>/button2",
                    "interactions": "",
                    "processors": "",
                    "groups": "",
                    "action": "Back2",
                    "isComposite": false,
                    "isPartOfComposite": false
                },
                {
                    "name": "",
                    "id": "806d4924-4009-4203-88a9-2fa2cef86f18",
                    "path": "<HID::Logitech Logitech Extreme 3D>/button3",
                    "interactions": "",
                    "processors": "",
                    "groups": "",
                    "action": "ButtonSouth3",
                    "isComposite": false,
                    "isPartOfComposite": false
                },
                {
                    "name": "",
                    "id": "387ca0fa-2de3-4665-beb7-130b3bcec160",
                    "path": "<HID::Logitech Logitech Extreme 3D>/button4",
                    "interactions": "",
                    "processors": "",
                    "groups": "",
                    "action": "ButtonEast4",
                    "isComposite": false,
                    "isPartOfComposite": false
                },
                {
                    "name": "",
                    "id": "e7e73118-b003-4e11-8443-aaf2a4c12a7b",
                    "path": "<HID::Logitech Logitech Extreme 3D>/button5",
                    "interactions": "",
                    "processors": "",
                    "groups": "",
                    "action": "ButtonWest5",
                    "isComposite": false,
                    "isPartOfComposite": false
                },
                {
                    "name": "",
                    "id": "c94d4a88-878b-47a7-bcba-ee880d2ed986",
                    "path": "<HID::Logitech Logitech Extreme 3D>/button6",
                    "interactions": "",
                    "processors": "",
                    "groups": "",
                    "action": "ButtonNorth6",
                    "isComposite": false,
                    "isPartOfComposite": false
                },
                {
                    "name": "",
                    "id": "7b480b19-024d-44ab-8907-5bea2e3a7052",
                    "path": "<HID::Logitech Logitech Extreme 3D>/button7",
                    "interactions": "",
                    "processors": "",
                    "groups": "",
                    "action": "LeftTrigger7",
                    "isComposite": false,
                    "isPartOfComposite": false
                },
                {
                    "name": "",
                    "id": "851e04bc-880e-4588-a78f-821c7e88e667",
                    "path": "<HID::Logitech Logitech Extreme 3D>/button8",
                    "interactions": "",
                    "processors": "",
                    "groups": "",
                    "action": "LeftShoulder8",
                    "isComposite": false,
                    "isPartOfComposite": false
                },
                {
                    "name": "",
                    "id": "0536eee7-a796-4fa0-b374-ac65394c11d2",
                    "path": "<HID::Logitech Logitech Extreme 3D>/button9",
                    "interactions": "",
                    "processors": "",
                    "groups": "",
                    "action": "StickLeft9",
                    "isComposite": false,
                    "isPartOfComposite": false
                },
                {
                    "name": "",
                    "id": "5e735674-a6e7-463a-b865-17cd58435371",
                    "path": "<HID::Logitech Logitech Extreme 3D>/button10",
                    "interactions": "",
                    "processors": "",
                    "groups": "",
                    "action": "StickRight10",
                    "isComposite": false,
                    "isPartOfComposite": false
                },
                {
                    "name": "",
                    "id": "f7702294-4817-4931-afed-5ec1daf87ac1",
                    "path": "<HID::Logitech Logitech Extreme 3D>/button11",
                    "interactions": "",
                    "processors": "",
                    "groups": "",
                    "action": "ButtonLeft11",
                    "isComposite": false,
                    "isPartOfComposite": false
                },
                {
                    "name": "",
                    "id": "9fc6f8e0-e705-40ba-9b16-6ef35441d803",
                    "path": "<HID::Logitech Logitech Extreme 3D>/button12",
                    "interactions": "",
                    "processors": "",
                    "groups": "",
                    "action": "ButtonRight12",
                    "isComposite": false,
                    "isPartOfComposite": false
                }
            ]
        }
    ],
    "controlSchemes": []
}